{
  "name": "Partnership",
  "fields": [],
  "relationships": [
    {
      "relationshipType": "many-to-one",
      "otherEntityName": "dictionary",
      "otherEntityRelationshipName": "partnership",
      "relationshipName": "type",
      "otherEntityField": "id"
    },
    {
      "relationshipType": "many-to-one",
      "otherEntityName": "companyInfo",
      "otherEntityRelationshipName": "partnership",
      "relationshipName": "contractor",
      "otherEntityField": "id"
    },
    {
      "relationshipType": "many-to-one",
      "otherEntityName": "contract",
      "otherEntityRelationshipName": "partnership",
      "relationshipName": "contract",
      "otherEntityField": "id"
    }
  ],
  "changelogDate": "20201113045717",
  "entityTableName": "partnership",
  "dto": "mapstruct",
  "pagination": "no",
  "service": "serviceClass",
  "jpaMetamodelFiltering": false,
  "fluentMethods": true,
  "readOnly": false,
  "embedded": false,
  "clientRootFolder": "",
  "applications": "*"
}
